1001 (2)
1002 (31)
1003 (31)
1004 (31)
1005 (31)
1006 (31)
1007 (31)
1008 (31)
1009 (31)
1010 (31)
1011 (31)
1012 (31)
1013 (31)
1014 (31)
1015 (31)
1016 (31)
1017 (31)
1018 (31)
1019 (31)
1020 (31)
1021 (31)
1022 (31)
1023 (31)
1024 (31)
1025 (31)
1026 (31)
1027 (31)
1028 (31)
1029 (31)
1030 (31)
1031 (31)
1032 (31)
1033 (31)
1034 (31)
1035 (31)
1036 (31)
1037 (31)
1038 (31)
1039 (31)
1040 (31)
1041 (31)
1042 (31)
1043 (31)
1044 (31)
1045 (31)
1046 (31)
1047 (31)
1048 (31)
1049 (31)
1050 (31)
1051 (31)
1052 (31)
1053 (31)
1054 (31)
1055 (31)
1056 (31)
1057 (31)
1058 (31)
1059 (31)
1060 (31)
1061 (31)
1062 (31)
1063 (31)
1064 (31)
1065 (31)
1066 (31)
1067 (31)
1068 (31)
1069 (31)
1070 (31)
1071 (30)
1072 (29)
1073 (28)
1074 (27)
1075 (26)
1076 (25)
1077 (24)
1078 (23)
1079 (22)
1080 (21)
1081 (20)
1082 (19)
1083 (18)
1084 (17)
1085 (16)
1086 (15)
1087 (14)
1088 (13)
1089 (12)
1090 (11)
1091 (10)
1092 (9)
1093 (8)
1094 (7)
1095 (6)
1096 (5)
1097 (4)
1098 (3)
1099 (2)
1100 (1)
